Verilog-Projects/3 - Controlador de Ponte H/ponteh/simulation/qsim/ponteh.msim.vcd
$comment
	File created using the following command:
		vcd file ponteh.msim.vcd -direction
$end
$date
	Wed Jun 07 18:45:34 2023
$end
$version
	ModelSim Version 10.5b
$end
$timescale
	1ps
$end

$scope module ponteh_vlg_vec_tst $end
$var reg 1 ! CLK $end
$var reg 1 " FR $end
$var reg 2 # RGT [1:0] $end
$var reg 2 $ VLR [1:0] $end
$var wire 1 % SA $end
$var wire 1 & SH $end

$scope module i1 $end
$var wire 1 ' gnd $end
$var wire 1 ( vcc $end
$var wire 1 ) unknown $end
$var tri1 1 * devclrn $end
$var tri1 1 + devpor $end
$var tri1 1 , devoe $end
$var wire 1 - SA~output_o $end
$var wire 1 . SH~output_o $end
$var wire 1 / FR~input_o $end
$var wire 1 0 mod1|fr2~0_combout $end
$var wire 1 1 mod1|fr2~q $end
$var wire 1 2 mod1|fr4~0_combout $end
$var wire 1 3 mod1|fr4~q $end
$var wire 1 4 CLK~input_o $end
$var wire 1 5 VLR[1]~input_o $end
$var wire 1 6 RGT[0]~input_o $end
$var wire 1 7 RGT[1]~input_o $end
$var wire 1 8 Equal0~2_combout $end
$var wire 1 9 VLR[0]~input_o $end
$var wire 1 : mod1|Mux0~0_combout $end
$var wire 1 ; mod1|fr8~0_combout $end
$var wire 1 < mod1|fr8~q $end
$var wire 1 = mod1|Mux0~combout $end
$var wire 1 > Equal0~0_combout $end
$var wire 1 ? mod2|count[0]~0_combout $end
$var wire 1 @ mod2|Add0~0_combout $end
$var wire 1 A mod2|am50~q $end
$var wire 1 B mod2|LessThan0~0_combout $end
$var wire 1 C mod2|am25~q $end
$var wire 1 D Equal0~1_combout $end
$var wire 1 E mod2|Mux0~0_combout $end
$var wire 1 F mod2|LessThan2~0_combout $end
$var wire 1 G mod2|am75~q $end
$var wire 1 H mod2|Mux0~1_combout $end
$var wire 1 I mod3|SA~0_combout $end
$var wire 1 J mod3|SA~q $end
$var wire 1 K mod3|SH~0_combout $end
$var wire 1 L mod3|SH~q $end
$var wire 1 M OPE [1] $end
$var wire 1 N OPE [0] $end
$var wire 1 O CMO [1] $end
$var wire 1 P CMO [0] $end
$var wire 1 Q mod2|count [1] $end
$var wire 1 R mod2|count [0] $end
$var wire 1 S DIV [1] $end
$var wire 1 T DIV [0] $end
$upscope $end
$upscope $end
$enddefinitions $end
#0
$dumpvars
0!
0"
b0 #
b1 $
0%
0&
0'
1(
x)
1*
1+
1,
0-
0.
0/
10
01
12
03
04
05
06
07
08
19
0:
1;
0<
0=
1>
1?
0@
0A
0B
0C
0D
0E
0F
0G
0H
0I
0J
0K
0L
0N
0M
0P
0O
0R
zQ
0T
0S
$end
#10000
1"
1/
1:
1=
1R
11
1F
1B
1@
0?
00
13
02
1<
0;
#20000
0"
0/
0:
0=
#30000
1"
1/
1:
1=
1G
1C
1A
0R
01
1E
0B
1?
10
#40000
0"
0/
0:
0=
#50000
1!
1"
1/
14
1:
1=
0C
1R
1N
11
0E
0@
0?
1I
00
0I
03
12
#60000
0"
0/
0:
0=
#70000
1"
1/
1:
1=
0A
0R
01
0F
1?
10
#80000
0"
0/
0:
0=
#90000
1"
1/
1:
1=
0G
1R
11
1F
1B
1@
0?
00
13
02
0<
1;
#100000
0!
0"
0/
04
0:
0=
#110000
b0 $
1"
1/
09
1:
1=
1G
1C
1A
0R
01
1E
0B
1?
10
1I
#120000
b1 #
0"
16
0/
0>
18
0:
0=
#130000
1"
1/
1:
1=
0C
1R
1J
11
1-
0E
1%
0@
0?
00
0I
03
12
#140000
0"
0/
0:
0=
#150000
1!
1"
1/
14
1:
1=
0A
0R
0J
01
0-
0%
0F
1?
10
#160000
0"
0/
0:
0=
#170000
1"
1/
1:
1=
0G
1R
11
1F
1B
1@
0?
00
13
02
1<
0;
#180000
0"
0/
0:
0=
#190000
1"
1/
1:
1=
1G
1C
1A
0R
01
1E
0B
1?
10
1I
#200000
0!
0"
0/
04
0:
0=
#210000
1"
1/
1:
1=
0C
1R
1J
11
1-
0E
1%
0@
0?
00
0I
03
12
#220000
0"
0/
0:
0=
#230000
1"
1/
1:
1=
0A
0R
0J
01
0-
0%
0F
1?
10
#240000
b11 #
b10 $
b10 #
0"
17
06
0/
15
1D
08
0:
0=
#250000
1!
1"
1/
14
1:
1=
0G
1R
1O
11
1F
1B
1@
0?
00
13
02
0<
1;
#260000
0"
0/
0:
0=
#270000
1"
1/
1:
1=
1G
1C
1A
0R
01
1H
0B
1?
10
1I
#280000
0"
0/
0:
0=
#290000
1"
1/
1:
1=
0C
1R
1J
11
1-
1%
0@
0?
00
03
12
#300000
0!
0"
0/
04
0:
0=
#310000
1"
1/
1:
1=
0A
0R
01
0F
1?
10
#320000
0"
0/
0:
0=
#330000
1"
1/
1:
1=
0G
1R
11
0H
1F
1B
1@
0?
00
0I
13
02
1<
0;
#340000
0"
0/
0:
0=
#350000
b0 #
b0 $
1!
1"
07
1/
14
05
0D
1>
1:
1=
1G
1C
1A
0R
0J
01
0-
1H
0%
0B
1?
10
1I
#360000
0"
0/
0:
0=
#370000
1"
1/
1:
1=
0C
1R
1J
11
1-
1%
0@
0?
00
03
12
#380000
0"
0/
0:
0=
#390000
1"
1/
1:
1=
0A
0R
01
0F
1?
10
#400000
0!
0"
0/
04
0:
0=
#410000
1"
1/
1:
1=
0G
1R
11
0H
1F
1B
1@
0?
00
0I
13
02
0<
1;
#420000
0"
0/
0:
0=
#430000
1"
1/
1:
1=
1G
1C
1A
0R
0J
01
0-
1H
0%
0B
1?
10
1I
#440000
b10 $
0"
0/
15
0:
0=
#450000
1!
1"
1/
14
1:
1=
0C
1R
1M
0N
1J
11
1-
1%
0@
0?
1K
0I
00
03
12
#460000
0"
0/
0:
0=
#470000
1"
1/
1:
1=
0A
0R
1L
0J
01
0-
1.
1&
0%
0F
1?
10
#480000
0"
0/
0:
0=
#490000
1"
1/
1:
1=
0G
1R
11
0H
1F
1B
1@
0?
00
0K
13
02
1<
0;
#500000
0!
0"
0/
04
0:
0=
#510000
1"
1/
1:
1=
1G
1C
1A
0R
0L
01
0.
1H
0&
0B
1?
10
1K
#520000
0"
0/
0:
0=
#530000
1"
1/
1:
1=
0C
1R
1L
11
1.
1&
0@
0?
00
03
12
#540000
0"
0/
0:
0=
#550000
b11 $
b1 #
b1 $
1!
1"
16
1/
14
05
19
0>
18
1:
1=
0A
0R
01
0F
1?
10
#560000
0"
0/
0:
0=
#570000
1"
1/
1:
1=
0G
1R
11
0H
1F
1B
1@
0?
00
0K
13
02
0<
1;
#580000
0"
0/
0:
0=
#590000
1"
1/
1:
1=
1G
1C
1A
0R
0L
01
0.
1H
0&
0B
1?
10
1K
#600000
0!
0"
0/
04
0:
0=
#610000
1"
1/
1:
1=
0C
1R
1L
11
1.
1&
0@
0?
00
03
12
#620000
0"
0/
0:
0=
#630000
1"
1/
1:
1=
0A
0R
01
0F
1?
10
#640000
0"
0/
0:
0=
#650000
b11 #
b10 #
1!
1"
17
06
1/
14
1D
08
1:
1=
0G
1R
1T
11
0H
1F
1B
1@
0?
00
0K
13
02
1<
0;
#660000
0"
0/
#670000
b0 $
1"
1/
09
01
0:
10
0=
#680000
0"
0/
#690000
1"
1/
11
1:
00
1=
1G
1C
1A
0R
0L
03
0.
1H
0&
0B
1?
12
1K
#700000
0!
0"
0/
04
#710000
1"
1/
01
0:
10
0=
#720000
0"
0/
#730000
1"
1/
11
1:
00
1=
0C
1R
1L
13
1.
1&
0@
0?
02
0<
1;
#740000
0"
0/
#750000
1!
1"
1/
14
0O
01
0H
0:
10
0K
0=
#760000
0"
0/
#770000
1"
1/
11
1:
00
1=
0A
0R
0L
03
0.
0&
0F
1?
12
#780000
0"
0/
#790000
1"
1/
01
0:
10
0=
#800000
0!
0"
0/
04
#810000
b0 #
1"
07
1/
0D
1>
11
1:
00
1=
0G
1R
13
1F
1B
1@
0?
02
1<
0;
#820000
0"
0/
#830000
1"
1/
01
0:
10
0=
#840000
0"
0/
#850000
1!
1"
1/
14
0M
11
1:
00
1=
1G
1C
1A
0R
03
1E
0B
1?
12
#860000
0"
0/
#870000
1"
1/
01
0:
10
0=
#880000
0"
0/
#890000
1"
1/
11
1:
00
1=
0C
1R
13
0E
0@
0?
02
0<
1;
#900000
0!
0"
0/
04
#910000
1"
1/
01
0:
10
0=
#920000
0"
0/
#930000
1"
1/
11
1:
00
1=
0A
0R
03
0F
1?
12
#940000
0"
0/
#950000
1!
1"
1/
14
01
0:
10
0=
#960000
0"
0/
#970000
1"
1/
11
1:
00
1=
0G
1R
13
1F
1B
1@
0?
02
1<
0;
#980000
0"
0/
#990000
1"
1/
01
0:
10
0=
